%YAML 1.1
%TAG !u! tag:unity3d.com,2011:
--- !u!1 &3578969291695703134
GameObject:
  m_ObjectHideFlags: 0
  m_CorrespondingSourceObject: {fileID: 0}
  m_PrefabInstance: {fileID: 0}
  m_PrefabAsset: {fileID: 0}
  serializedVersion: 6
  m_Component:
  - component: {fileID: 3578969291695703130}
  - component: {fileID: 3578969291695703129}
  - component: {fileID: 3578969291695703128}
  - component: {fileID: 3578969291695703135}
  m_Layer: 0
  m_Name: Obstacle_crate (2)
  m_TagString: Obstacle
  m_Icon: {fileID: 0}
  m_NavMeshLayer: 0
  m_StaticEditorFlags: 0
  m_IsActive: 1
--- !u!4 &3578969291695703130
Transform:
  m_ObjectHideFlags: 0
  m_CorrespondingSourceObject: {fileID: 0}
  m_PrefabInstance: {fileID: 0}
  m_PrefabAsset: {fileID: 0}
  m_GameObject: {fileID: 3578969291695703134}
  m_LocalRotation: {x: 0, y: 0, z: 0, w: 1}
  m_LocalPosition: {x: 1.97, y: 0.51609325, z: -0.38737297}
  m_LocalScale: {x: 1, y: 1, z: 1}
  m_ConstrainProportionsScale: 0
  m_Children:
  - {fileID: 3578969291533188446}
  m_Father: {fileID: 0}
  m_RootOrder: 0
  m_LocalEulerAnglesHint: {x: 0, y: 0, z: 0}
--- !u!114 &3578969291695703129
MonoBehaviour:
  m_ObjectHideFlags: 0
  m_CorrespondingSourceObject: {fileID: 0}
  m_PrefabInstance: {fileID: 0}
  m_PrefabAsset: {fileID: 0}
  m_GameObject: {fileID: 3578969291695703134}
  m_Enabled: 1
  m_EditorHideFlags: 0
  m_Script: {fileID: 11500000, guid: 8dd2a1992f9b21741a7c3a4808b08632, type: 3}
  m_Name: 
  m_EditorClassIdentifier: 
  speed: 15
--- !u!65 &3578969291695703128
BoxCollider:
  m_ObjectHideFlags: 0
  m_CorrespondingSourceObject: {fileID: 0}
  m_PrefabInstance: {fileID: 0}
  m_PrefabAsset: {fileID: 0}
  m_GameObject: {fileID: 3578969291695703134}
  m_Material: {fileID: 0}
  m_IsTrigger: 0
  m_Enabled: 1
  serializedVersion: 2
  m_Size: {x: 1, y: 1.5, z: 1}
  m_Center: {x: 0, y: 0.75, z: 0}
--- !u!54 &3578969291695703135
Rigidbody:
  m_ObjectHideFlags: 0
  m_CorrespondingSourceObject: {fileID: 0}
  m_PrefabInstance: {fileID: 0}
  m_PrefabAsset: {fileID: 0}
  m_GameObject: {fileID: 3578969291695703134}
  serializedVersion: 2
  m_Mass: 1
  m_Drag: 0
  m_AngularDrag: 0.05
  m_UseGravity: 1
  m_IsKinematic: 0
  m_Interpolate: 0
  m_Constraints: 0
  m_CollisionDetection: 0
--- !u!1001 &3578969291533043740
PrefabInstance:
  m_ObjectHideFlags: 0
  serializedVersion: 2
  m_Modification:
    m_TransformParent: {fileID: 3578969291695703130}
    m_Modifications:
    - target: {fileID: 151586, guid: 95927758d3a4cef4ba6c4318f06876fd, type: 3}
      propertyPath: m_Name
      value: Barrel_01
      objectReference: {fileID: 0}
    - target: {fileID: 406850, guid: 95927758d3a4cef4ba6c4318f06876fd, type: 3}
      propertyPath: m_RootOrder
      value: 0
      objectReference: {fileID: 0}
    - target: {fileID: 406850, guid: 95927758d3a4cef4ba6c4318f06876fd, type: 3}
      propertyPath: m_LocalPosition.x
      value: 0
      objectReference: {fileID: 0}
    - target: {fileID: 406850, guid: 95927758d3a4cef4ba6c4318f06876fd, type: 3}
      propertyPath: m_LocalPosition.y
      value: 0
      objectReference: {fileID: 0}
    - target: {fileID: 406850, guid: 95927758d3a4cef4ba6c4318f06876fd, type: 3}
      propertyPath: m_LocalPosition.z
      value: 0
      objectReference: {fileID: 0}
    - target: {fileID: 406850, guid: 95927758d3a4cef4ba6c4318f06876fd, type: 3}
      propertyPath: m_LocalRotation.w
      value: 1
      objectReference: {fileID: 0}
    - target: {fileID: 406850, guid: 95927758d3a4cef4ba6c4318f06876fd, type: 3}
      propertyPath: m_LocalRotation.x
      value: 0
      objectReference: {fileID: 0}
    - target: {fileID: 406850, guid: 95927758d3a4cef4ba6c4318f06876fd, type: 3}
      propertyPath: m_LocalRotation.y
      value: 0
      objectReference: {fileID: 0}
    - target: {fileID: 406850, guid: 95927758d3a4cef4ba6c4318f06876fd, type: 3}
      propertyPath: m_LocalRotation.z
      value: 0
      objectReference: {fileID: 0}
    - target: {fileID: 406850, guid: 95927758d3a4cef4ba6c4318f06876fd, type: 3}
      propertyPath: m_LocalEulerAnglesHint.x
      value: 0
      objectReference: {fileID: 0}
    - target: {fileID: 406850, guid: 95927758d3a4cef4ba6c4318f06876fd, type: 3}
      propertyPath: m_LocalEulerAnglesHint.y
      value: 0
      objectReference: {fileID: 0}
    - target: {fileID: 406850, guid: 95927758d3a4cef4ba6c4318f06876fd, type: 3}
      propertyPath: m_LocalEulerAnglesHint.z
      value: 0
      objectReference: {fileID: 0}
    m_RemovedComponents: []
  m_SourcePrefab: {fileID: 100100000, guid: 95927758d3a4cef4ba6c4318f06876fd, type: 3}
--- !u!4 &3578969291533188446 stripped
Transform:
  m_CorrespondingSourceObject: {fileID: 406850, guid: 95927758d3a4cef4ba6c4318f06876fd, type: 3}
  m_PrefabInstance: {fileID: 3578969291533043740}
  m_PrefabAsset: {fileID: 0}
